<?xml version="1.0" encoding="utf-8"?>
<!-- Generator: Adobe Illustrator 16.0.0, SVG Export Plug-In . SVG Version: 6.00 Build 0)  -->
<!DOCTYPE svg PUBLIC "-//W3C//DTD SVG 1.1//EN" "http://www.w3.org/Graphics/SVG/1.1/DTD/svg11.dtd">
<svg version="1.1" id="Layer_1" xmlns="http://www.w3.org/2000/svg" xmlns:xlink="http://www.w3.org/1999/xlink" x="0px" y="0px"
	 width="76px" height="92px" viewBox="0 0 76 92" enable-background="new 0 0 76 92" xml:space="preserve">
<g>
	<circle fill="#7C9DC9" cx="68.271" cy="6.562" r="4.271"/>
	<line fill="none" stroke="#7C9DC9" stroke-width="2" stroke-miterlimit="10" x1="65.75" y1="9.75" x2="28.774" y2="46.726"/>
	<ellipse fill="#212F48" cx="18.72" cy="86.75" rx="10.054" ry="2.583"/>
	<path fill="#7C9DC9" d="M18.721,41.167c-13.888,0-17.191,13.241-15.221,19C5.979,67.412,18.721,86.75,18.721,86.75
		S30.522,67.075,33.14,60C35.201,54.427,31.5,41.167,18.721,41.167z M18.721,60.833c-2.358,0-4.271-1.912-4.271-4.272
		c0-2.358,1.913-4.271,4.271-4.271c2.359,0,4.271,1.913,4.271,4.271C22.992,58.921,21.08,60.833,18.721,60.833z"/>
</g>
</svg>
